"Name","Succ","Fail","Send_Rate","Max_Delay","Min_Delay","Avg_Delay","Throughput","Delay_c2e","Delay_e2o","Delay_o2v","T0_time","T1_time","Tn_time","ratio"
"BindingRegistry",100000,0,"80 tps","42.5720 s","0.0540 s","1.6786 s","80 tps",0,0,0,1589913732.607,1589913733.115,1589914983.278,1.0004063469299282

"Name","SendRate_Avg","Avg_Delay","Avg_Throughput","Min_delay","Max_delay","No_of_failed_tx","Delay_c2e","Delay_e2o","Delay_o2v","avg_ratio"
"BindingRegistry",80,1.6786,80,0.054,42.572,0,0,0,0,1.0004063469299282



"Time taken"
1444.084

