"Name","Succ","Fail","Send_Rate","Max_Delay","Min_Delay","Avg_Delay","Throughput","Delay_c2e","Delay_e2o","Delay_o2v","T0_time","T1_time","Tn_time","ratio"
"BindingRegistry",100000,0,"80 tps","18.9430 s","0.0520 s","1.2304 s","80 tps",0,0,0,1589916214.574,1589916214.724,1589917465.359,1.000119939147208

"Name","SendRate_Avg","Avg_Delay","Avg_Throughput","Min_delay","Max_delay","No_of_failed_tx","Delay_c2e","Delay_e2o","Delay_o2v","avg_ratio"
"BindingRegistry",80,1.2304,80,0.052,18.943,0,0,0,0,1.000119939147208



"Time taken"
1563.7540000000001

