"ID","NAME","Memory(max)","CPU(max)","Traffic In","Traffic Out"
"b55dfde53ac7f970493c835bc...acfda","136.225.152.3/quorum-exam...de1_1","1.9GB","40.84%","497.6MB","682.5MB"
"e4b55fd7fdf1203c8fa77f2de...58883","136.225.152.3/quorum-exam...de3_1","2.0GB","43.65%","435.6MB","338.3MB"
"efca7fdb2306758acb5d349b9...78fc7","136.225.152.3/quorum-exam...de2_1","1.9GB","47.07%","433.5MB","446.1MB"