"ID","NAME","Memory(max)","CPU(max)","Traffic In","Traffic Out"
"cadcb6169913903434cc56b08...4bb3b","136.225.152.3/quorum-exam...de2_1","931.5MB","18.44%","539.8MB","503.8MB"
"969ce86b4a7ee9be0854e7fc2...68eaf","136.225.152.3/quorum-exam...de1_1","981.8MB","19.68%","490.3MB","651.5MB"
"ed207f8e18753c4729b34aec0...a514e","136.225.152.3/quorum-exam...de3_1","930.4MB","17.88%","542.9MB","504.0MB"